date,compound_sent
2018-07-01,0.16565000000000002
2018-07-02,0.056817142857142865
2018-07-03,0.04413999999999999
2018-07-04,0.045716
2018-07-05,0.03335142857142859
2018-07-06,0.12607500000000002
2018-07-07,0.14283333333333334
2018-07-08,0.1540181818181818
2018-07-09,0.01806129032258064
2018-07-10,0.08796521739130435
2018-07-11,0.049770270270270256
2018-07-12,0.054059375
2018-07-13,0.07705000000000001
2018-07-14,0.21694545454545455
2018-07-15,0.18880999999999998
2018-07-16,0.06877333333333334
2018-07-17,0.23784545454545453
2018-07-18,0.010736363636363636
2018-07-19,0.07851351351351353
2018-07-20,0.18269999999999997
2018-07-21,0.10356874999999999
2018-07-22,0.12644166666666667
2018-07-23,0.003859090909090908
2018-07-24,0.11220312500000003
2018-07-25,0.1174421052631579
2018-07-26,-0.005215151515151506
