date,compound_sent
2018-09-01,0.118426316
2018-09-02,0.140890476
2018-09-03,0.007948
2018-09-04,0.08001
2018-09-05,0.140506667
2018-09-06,0.083605882
2018-09-07,0.090865625
2018-09-08,-0.054055556
2018-09-09,0.092467568
2018-09-10,0.049963333
2018-09-11,0.10408125
2018-09-12,0.117158974
2018-09-13,0.154643636
2018-09-14,0.034871429
2018-09-15,-0.064524138
2018-09-16,0.072015385