date,compound_sent
2018-04-01,0.15486666666666668
2018-04-02,0.022672222222222226
2018-04-03,0.17235769230769232
2018-04-04,0.07091739130434782
2018-04-05,0.08635714285714283
2018-04-06,0.16255357142857144
2018-04-07,0.27902
2018-04-08,0.206075
2018-04-09,0.237825
2018-04-10,0.0055750000000000036
2018-04-11,0.21763333333333326
2018-04-12,0.09540714285714287
2018-04-13,0.03493142857142857
2018-04-14,0.4984000000000001
2018-04-15,0.35406666666666664
2018-04-16,0.09611851851851852
2018-04-17,0.10193666666666663
2018-04-18,0.0005029411764705949
2018-04-19,0.21409285714285708
2018-04-20,0.21777714285714286
2018-04-21,0.07447000000000001
2018-04-22,0.3139166666666667
2018-04-23,0.1653516129032258
2018-04-24,0.24521
2018-04-25,0.17530000000000004
2018-04-26,0.1242029411764706
2018-04-27,0.2677703703703703
2018-04-28,0.158
2018-04-29,0.06587142857142858
2018-04-30,0.17748095238095238
