date,compound_sent
2016-10-01,0.514625
2016-10-02,0.3583666666666667
2016-10-03,0.2841333333333333
2016-10-04,0.4726714285714286
2016-10-05,0.14025714285714286
2016-10-06,0.3844833333333333
2016-10-07,0.015599999999999994
2016-10-08,0.3182
2016-10-09,0.3601833333333333
2016-10-10,0.3908428571428572
2016-10-11,0.4071375
2016-10-12,0.3724333333333333
2016-10-13,0.11131666666666667
2016-10-14,0.3711666666666667
2016-10-15,0.196175
2016-10-16,0.3822666666666667
2016-10-17,0.5074833333333334
2016-10-18,0.30017777777777777
2016-10-19,0.22755714285714285
2016-10-20,0.4356571428571429
2016-10-21,0.3710333333333333
2016-10-22,0.2813333333333333
2016-10-23,0.1377
2016-10-24,0.4826333333333334
2016-10-25,0.5137714285714285
2016-10-26,0.2414
2016-10-27,0.3514666666666667
2016-10-28,0.2958833333333333
2016-10-29,0.20773333333333333
2016-10-30,0.2304
2016-10-31,0.2537714285714286
