date,compound_sent
2017-03-01,0.33928
2017-03-02,0.3651928571428572
2017-03-03,0.47803999999999996
2017-03-04,0.5558000000000001
2017-03-05,0.198925
2017-03-06,0.29125999999999996
2017-03-07,0.2494333333333333
2017-03-08,0.6114750000000001
2017-03-09,0.5382857142857144
2017-03-10,0.505525
2017-03-11,0.2024
2017-03-12,0.16946666666666665
2017-03-13,0.21296000000000004
2017-03-14,0.35466000000000003
2017-03-15,0.17677777777777778
2017-03-16,0.2559125
2017-03-17,0.3295444444444444
2017-03-18,0.24636666666666665
2017-03-19,0.246325
2017-03-20,0.3062636363636364
2017-03-22,0.3182
2017-03-23,0.24799285714285715
2017-03-24,0.3348
2017-03-25,-0.002066666666666661
2017-03-26,0.25397499999999995
2017-03-27,0.25537
2017-03-28,0.13696153846153847
2017-03-29,0.4947333333333334
2017-03-30,0.2966857142857143
2017-03-31,0.3382888888888889
