date,compound_sent
2017-10-01,0.16926285714285713
2017-10-02,0.25634285714285715
2017-10-03,0.28239000000000003
2017-10-04,0.292
2017-10-05,0.1924142857142857
2017-10-06,0.2350083333333333
2017-10-07,0.41281
2017-10-08,0.3151478260869565
2017-10-09,0.1729069767441861
2017-10-10,0.2275379310344828
2017-10-11,0.35895833333333343
2017-10-12,0.4767894736842105
2017-10-13,0.25922807017543864
2017-10-14,0.3307296296296296
2017-10-15,0.240575
2017-10-16,0.4406352941176471
2017-10-17,0.1874846153846154
2017-10-18,0.1735909090909091
2017-10-19,0.2607777777777778
2017-10-20,0.37511538461538463
2017-10-21,0.2836076923076923
2017-10-22,0.1720875
2017-10-23,0.3877100000000001
2017-10-24,0.1824
2017-10-25,0.11734912280701755
2017-10-26,0.22345652173913044
2017-10-27,0.23726969696969705
2017-10-28,0.3377833333333333
2017-10-29,0.11131935483870964
2017-10-30,0.2779184210526315
2017-10-31,0.2558020408163265
