date,compound_sent
2017-08-01,0.2387714285714285
2017-08-02,0.3300529411764706
2017-08-03,0.2886533333333334
2017-08-04,0.30746111111111113
2017-08-05,0.2799357142857143
2017-08-06,0.21737058823529407
2017-08-07,0.37842
2017-08-08,0.27003750000000004
2017-08-09,0.211925
2017-08-10,0.3960809523809523
2017-08-11,0.260041935483871
2017-08-12,0.17415833333333333
2017-08-13,0.4033714285714286
2017-08-14,0.277312
2017-08-15,0.3189684210526316
2017-08-16,0.3361482758620689
2017-08-17,0.25892857142857145
2017-08-18,0.2309653846153846
2017-08-19,0.32955
2017-08-20,0.357025
2017-08-21,0.2741375
2017-08-22,0.4073523809523809
2017-08-23,0.3105785714285715
2017-08-24,0.2787166666666667
2017-08-25,0.6643
2017-08-26,0.2595
2017-08-27,0.2406727272727273
2017-08-28,0.18474375
2017-08-29,0.31814117647058826
2017-08-30,0.3332
2017-08-31,0.3554761904761905
