date,compound_sent
2017-11-01,0.3644235294117648
2017-11-02,0.30322000000000005
2017-11-03,0.014362499999999981
2017-11-04,-0.07376296296296296
2017-11-05,0.22381935483870968
2017-11-06,0.30323999999999995
2017-11-07,0.15196500000000002
2017-11-08,0.22100799999999995
2017-11-09,0.3309465116279069
2017-11-10,0.14158333333333328
2017-11-11,0.20563333333333336
2017-11-12,0.3561
2017-11-13,0.25771875
2017-11-14,0.32815757575757565
2017-11-15,0.3385195121951219
2017-11-16,0.3695386363636364
2017-11-17,0.4551321428571429
2017-11-18,0.2437454545454545
2017-11-19,0.48686875
2017-11-20,0.26616999999999996
2017-11-21,0.21466595744680853
2017-11-22,0.2638054054054053
2017-11-23,0.21135365853658536
2017-11-24,0.30142894736842113
2017-11-25,0.2320368421052632
2017-11-26,0.1757172413793103
2017-11-27,0.3104864864864865
2017-11-28,0.3674688888888888
2017-11-29,0.4767115384615384
2017-11-30,0.2549166666666666
