date,compound_sent
2018-01-01,0.2259
2018-01-02,0.06335238095238095
2018-01-03,0.08787000000000003
2018-01-04,0.17796944444444446
2018-01-05,0.2252702702702703
2018-01-06,0.11316774193548387
2018-01-07,0.2486857142857143
2018-01-08,0.19949666666666668
2018-01-09,0.3101192307692308
2018-01-10,0.2570176470588235
2018-01-11,0.2337783783783784
2018-01-12,0.22530512820512816
2018-01-13,0.3516305555555557
2018-01-14,0.2515739130434783
2018-01-15,0.17498421052631574
2018-01-16,0.21931176470588232
2018-01-17,0.12488235294117647
2018-01-18,0.12089607843137255
2018-01-19,0.20924615384615386
2018-01-20,0.1786121212121212
2018-01-21,0.07681739130434784
2018-01-22,0.1915000000000001
2018-01-23,0.07408936170212764
2018-01-24,0.2710605263157895
2018-01-25,0.13855208333333333
2018-01-26,0.11053846153846156
2018-01-27,-0.14915333333333333
2018-01-28,0.1464058823529412
2018-01-29,0.03027037037037038
2018-01-30,0.123925
2018-01-31,0.13755102040816325
